__________               __           __________.__                                        _________                                
\______   \ ____  __ ___/  |_  ____   \______   \  | _____    ____   ____   ___________   /   _____/ ______________  __ ___________ 
 |       _//  _ \|  |  \   __\/ __ \   |     ___/  | \__  \  /    \ /    \_/ __ \_  __ \  \_____  \_/ __ \_  __ \  \/ // __ \_  __ \
 |    |   (  <_> )  |  /|  | \  ___/   |    |   |  |__/ __ \|   |  \   |  \  ___/|  | \/  /        \  ___/|  | \/\   /\  ___/|  | \/
 |____|_  /\____/|____/ |__|  \___  >  |____|   |____(____  /___|  /___|  /\___  >__|    /_______  /\___  >__|    \_/  \___  >__|   
        \/                        \/                      \/     \/     \/     \/                \/     \/                 \/      